Reduce mental burden in plots
…
5 On your own: NYC Dogs

This is to get you started on your own. You can install the relevant nycdogs package and read more about it here https://kjhealy.github.io/nycdogs/

# load the data
data("nyc_license")
data("nyc_zips")

# what is the prevalent NYC breed ?
nyc_license %>% 
  count(breed_rc, sort=TRUE) 

## # A tibble: 301 x 2
##    breed_rc                     n
##    <chr>                    <int>
##  1 Unknown                  16797
##  2 Yorkshire Terrier         7786
##  3 Shih Tzu                  7154
##  4 Labrador (or Crossbreed)  6986
##  5 Pit Bull (or Mix)         6751
##  6 Chihuahua                 5785
##  7 Maltese                   4308
##  8 Pomeranian                2197
##  9 Beagle                    2111
## 10 Jack Russell Terrier      2041
## # ... with 291 more rows

# what is the prevalent NYC dog name by animal gender? 
# Bella for girls, Max for boys!

nyc_license %>% 
  count(animal_name, animal_gender, sort=TRUE) 

## # A tibble: 19,294 x 3
##    animal_name       animal_gender     n
##    <chr>             <chr>         <int>
##  1 Unknown           M              1401
##  2 Bella             F              1365
##  3 Max               M              1272
##  4 Name Not Provided M              1111
##  5 Unknown           F              1093
##  6 Lola              F               875
##  7 Charlie           M               871
##  8 Rocky             M               869
##  9 Lucy              F               767
## 10 Buddy             M               743
## # ... with 19,284 more rows
…
